dplyr, Part 1: Basic Verbs
…
The group_by function

dplyr provides a function called group_by you can use to specify variables in your data frame whose values (or combinations of values) define groups of observations.

For example, we can use group_by to group the larger cropYield data frame into 9 smaller groups, one for each of the tilling and fertilizer method combinations.

> cropsGrouped <- group_by(cropYield, Till, Fert) # create the grouped dataset

The group_by function

The group_by function doesn't change the external appearance of the data frame; the only noticeable change is the addition of the line Groups: Till, Fert [9] when the data frame is printed.

> cropsGrouped # Inspect the grouped dataset

## Source: local data frame [99 x 4]
## Groups: Till, Fert [9]
## 
##    Field   Till    Fert Yield
##    <int> <fctr>  <fctr> <int>
## 1      1 Chisel   Broad   119
## 2      1 Chisel    Deep   130
## 3      1 Chisel Surface   123
##  [ reached getOption("max.print") -- omitted 7 rows ]
…
