dplyr, Part 2: Advanced Verbs and Pipes
…
The output of a window function depends on all the values in its input.

Window functions which are particularly useful in conjunction with the mutate function.

The ntile() function

The ntile() function ranks the data from each group into n clusters. This allows you to easily divide your data into as many bins as you like.

Here we'll create a variable identifying which netTime quintile each runner falls into, for males and females separately.

> marathon <- marathon %>% group_by(gender) %>%
... +    mutate(quintile = ntile(netTime, 5))
> select(marathon, gender:last, netTime, quintile)

## Source: local data frame [14,969 x 5]
## Groups: gender [2]
## 
##    gender           first        last netTime quintile
##     <chr>           <chr>       <chr>   <dbl>    <int>
## 1       F          Lineth   Chepkurui  53.533        1
## 2       M        Ridouane    Harroufi  45.933        1
## 3       F Belianesh Zemed       Gebre  53.917        1
##  [ reached getOption("max.print") -- omitted 7 rows ]
…
The percent_rank() function

The percent_rank() function ranks each observation in your data according to what proportion of other observations in the group have a lower value.

> marathon <- marathon %>%
... +    mutate(pBelow = percent_rank(netTime))
> select(marathon, gender:last, netTime, pBelow)

## Source: local data frame [14,969 x 5]
## Groups: gender [2]
## 
##    gender           first        last netTime       pBelow
##     <chr>           <chr>       <chr>   <dbl>        <dbl>
## 1       F          Lineth   Chepkurui  53.533 0.0000000000
## 2       M        Ridouane    Harroufi  45.933 0.0000000000
## 3       F Belianesh Zemed       Gebre  53.917 0.0001201779
## 4       M          Feyisa       Liesa  45.967 0.0001504664
## 5       F           Teyba       Naser  53.967 0.0002403557
##  [ reached getOption("max.print") -- omitted 5 rows ]
…
You can think of lag as answering the question "What is the value of the element to my left?" for each element in a vector.

The lag() function

Let's use the lag function to find how far apart in time successive runners finished the race.

We'll first need to ungroup the data and sort the data by netTime. Then we'll subtract each finishing time from the time just before it, and replace the leading NA with a 0.

> marathon <- marathon %>% ungroup() %>% arrange(netTime) %>%
... +    mutate(lag_time = netTime - lag(netTime),
... +           lag_time = replace(lag_time, is.na(lag_time), 0))
> select(marathon, gender:last, netTime, lag_time)

## # A tibble: 14,969 × 5
##    gender        first        last netTime lag_time
##     <chr>        <chr>       <chr>   <dbl>    <dbl>
## 1       M     Ridouane    Harroufi  45.933    0.000
## 2       M       Feyisa       Liesa  45.967    0.034
## 3       M        Silas        Sang  45.983    0.016
##  [ reached getOption("max.print") -- omitted 7 rows ]
…
The third element in the output is the sum of the first, second and third elements of the input

etc., etc., etc.

Cummulative Aggregates

In addition to cumsum(), Base R has the cummin(), cummax() and cumprod() functions. dplyr provides an additional function, cummean.

Let's use the cummean function to examine how the average net time changes as each runner finishes the race.

> marathon <- marathon %>% mutate(cumAvgNetTime = cummean(netTime))
> select(marathon, gender:last, netTime, cumAvgNetTime)

## # A tibble: 14,969 × 5
##    gender        first        last netTime cumAvgNetTime
##     <chr>        <chr>       <chr>   <dbl>         <dbl>
## 1       M     Ridouane    Harroufi  45.933      45.93300
## 2       M       Feyisa       Liesa  45.967      45.95000
## 3       M        Silas        Sang  45.983      45.96100
## 4       M        Karim El Mabchour  46.000      45.97075
##  [ reached getOption("max.print") -- omitted 6 rows ]
…
